Project 3: Visualization with ggplot2
…
# Read in the athlete_events.csv file. This file contains information of the athletes that participated in the olympics held in different years.
olympic_data = read_csv("athlete_events.csv")

Rows: 271116 Columns: 15
── Column specification ────────────────────────────────────────────────────────
Delimiter: ","
chr (10): Name, Sex, Team, NOC, Games, Season, City, Sport, Event, Medal
dbl  (5): ID, Age, Height, Weight, Year

ℹ Use `spec()` to retrieve the full column specification for this data.
ℹ Specify the column types or set `show_col_types = FALSE` to quiet this message.

olympic_data

# A tibble: 271,116 × 15
      ID Name     Sex     Age Height Weight Team  NOC   Games  Year Season City 
   <dbl> <chr>    <chr> <dbl>  <dbl>  <dbl> <chr> <chr> <chr> <dbl> <chr>  <chr>
 1     1 A Dijia… M        24    180     80 China CHN   1992…  1992 Summer Barc…
 2     2 A Lamusi M        23    170     60 China CHN   2012…  2012 Summer Lond…
 3     3 Gunnar … M        24     NA     NA Denm… DEN   1920…  1920 Summer Antw…
 4     4 Edgar L… M        34     NA     NA Denm… DEN   1900…  1900 Summer Paris
 5     5 Christi… F        21    185     82 Neth… NED   1988…  1988 Winter Calg…
 6     5 Christi… F        21    185     82 Neth… NED   1988…  1988 Winter Calg…
 7     5 Christi… F        25    185     82 Neth… NED   1992…  1992 Winter Albe…
 8     5 Christi… F        25    185     82 Neth… NED   1992…  1992 Winter Albe…
 9     5 Christi… F        27    185     82 Neth… NED   1994…  1994 Winter Lill…
10     5 Christi… F        27    185     82 Neth… NED   1994…  1994 Winter Lill…
# ℹ 271,106 more rows
# ℹ 3 more variables: Sport <chr>, Event <chr>, Medal <chr>
…
