Project 4: Visualizing Olympic Athletes
…
6. Are U.S. Basketball Players Taller?

6.a Average & median heights for Basketball, Tennis, Wrestling

Hint: Work inside one country, group by sport, then summarise.

Solution:

olympics |>
    filter(Team == "United States") |>
    group_by(Sport) |>
    summarize(avg_heights = mean(Height, na.rm = TRUE), median_heights = median(Height, na.rm = TRUE))

# A tibble: 55 × 3
   Sport            avg_heights median_heights
   <chr>                  <dbl>          <dbl>
 1 Alpine Skiing           173.            173
 2 Archery                 176.            178
 3 Art Competitions        177.            178
 4 Athletics               179.            180
 5 Badminton               171.            170
 6 Baseball                186.            185
 7 Basketball              193.            193
 8 Biathlon                175.            177
 9 Boxing                  175.            175
10 Canoeing                179.            178
# ℹ 45 more rows
…
