Project 2 Solutions: Data Exploration with ames_alcohol_test
…
# A tibble: 1 × 1
      n
  <int>
1   203

#203 tests have a Res1 of 0.

7. Filter the dataset to include only tests conducted after 6 PM.

df |>
    filter(hour > 6)

# A tibble: 278 × 8
    year month   day  hour location sex    Res1  Res2
   <dbl> <dbl> <dbl> <dbl> <chr>    <chr> <dbl> <dbl>
 1  2017    11    17    18 ISU PD   M     0.176 0.176
 2  2017    11     6    19 Ames PD  F     0     0    
 3  2017    10    28    19 Ames PD  M     0.119 0.12 
 4  2017    10    27    21 Ames PD  M     0.025 0.025
 5  2017    10    24    18 Ames PD  M     0.107 0.106
 6  2017    10    24    15 Ames PD  M     0     0    
 7  2017    10    12    12 Ames PD  M     0.169 0.168
 8  2017    10    10    22 Ames PD  M     0.111 0.111
 9  2017    10     8    10 Ames PD  M     0.041 0.04 
10  2017    10     7    21 Ames PD  M     0.152 0.152
# ℹ 268 more rows
…
Evening: 6 PM to 11:59 PM

Night: 12 AM to 5:59 AM

df |>
    mutate(time_of_day =
        case_when(
            hour >= 6 & hour < 12 ~ "Morning",
            hour >= 12 & hour < 18 ~ "Afternoon",
            hour >= 18 & hour < 24 ~ "Evening",
            hour < 6 | hour == 24 ~ "Night"
        )
    )

# A tibble: 1,556 × 9
    year month   day  hour location sex    Res1  Res2 time_of_day
   <dbl> <dbl> <dbl> <dbl> <chr>    <chr> <dbl> <dbl> <chr>      
 1  2017    12    17     1 Ames PD  M     0.046 0.046 Night      
 2  2017    12    14     3 ISU PD   F     0.121 0.12  Night      
 3  2017    12    10     5 ISU PD   F     0.068 0.067 Night      
 4  2017    12    10     3 ISU PD   F     0.077 0.077 Night      
 5  2017    12     9     2 ISU PD   M     0.085 0.084 Night      
 6  2017    12     9     1 Ames PD  M     0.16  0.161 Night      
 7  2017    12     7     3 Ames PD  M     0.131 0.131 Night      
 8  2017    12     4     1 ISU PD   M     0     0     Night      
 9  2017    12     3     1 Ames PD  M     0.091 0.09  Night      
10  2017    12     3     0 Ames PD  M     0.095 0.095 Night      
# ℹ 1,546 more rows
…
