Final Project by Kira Damo
…
top_no1_games <- twitch |> filter(Rank == 1)
top_no1_games

# A tibble: 105 × 12
    Rank Game              Month  Year Hours_watched Hours_streamed Peak_viewers
   <dbl> <chr>             <chr> <dbl>         <dbl>          <dbl>        <dbl>
 1     1 League of Legends 01     2016      94377226        1362044       530270
 2     1 League of Legends 02     2016      93154772        1266715       475784
 3     1 League of Legends 03     2016      94514511        1264029       599114
 4     1 League of Legends 04     2016      88389049        1217250       553165
 5     1 League of Legends 05     2016      80679320        1196096       433005
 6     1 League of Legends 06     2016      81348505        1037242       346059
 7     1 League of Legends 07     2016      77871713        1004238       296196
 8     1 League of Legends 08     2016      81684707        1097258       502181
 9     1 League of Legends 09     2016      81064642        1087244       711103
10     1 League of Legends 10     2016     104305242        1155966       952308
# ℹ 95 more rows
# ℹ 5 more variables: Peak_channels <dbl>, Streamers <dbl>, Avg_viewers <dbl>,
#   Avg_channels <dbl>, Avg_viewer_ratio <dbl>
…
